{
  "setup": {
    "model": "analysta.models.x2y.RNNModel",
    "detector_plugins": [
      "analysta.detector.plugins.MetricsPlugin",
      "analysta.detector.plugins.visualize_batch.VisualizeBatchPlugin"
    ]
  },

  "data": {
    "input_channels": [0],
    "output_channels": [0],
    "channels_names": ["Passengers"],
    "train_paths": [
      "train.csv"
    ],
    "val_paths": [
      "val.csv"
    ],
    "test_paths": [
      "test.csv"
    ],
    "mmap_mode": null
  },

  "preparation": {
    "edges_path": "best/edges-3a506cb0-7f89-11e9-8d3e-72000690be10.npz",
    "look_back": 5,
    "batch_size": 1024,
    "dataset_mean": [205.62528667230717],
    "dataset_var": [3878.326187869821]
  },

  "model": {
    "load": "best/model-3a51b2e6-7f89-11e9-8371-72000690be10.h5",
    "max_nb_epoch": 500,
    "cells": [4],
    "rnn_class": "keras.layers.LSTM"
  },

  "analyzer": {
    "disabled": true
  }
}