{
  "setup": {
    "model": "analysta.models.x2y.RNNModel"
  },

  "data": {
    "input_channels": [[1, 13]],
    "output_channels": [1],
    "channels_names": ["Datetime", "PM2.5", "DEWP", "TEMP", "PRES", "NW", "NE", "SE", "SW", "CV", "Iws", "Is", "Ir"],
    "train_paths": [
        "series_5.npy",
        "series_20.npy",
        "series_35.npy",
        "series_18.npy",
        "series_25.npy",
        "series_23.npy",
        "series_4.npy",
        "series_33.npy",
        "series_9.npy",
        "series_27.npy",
        "series_24.npy",
        "series_0.npy",
        "series_19.npy",
        "series_26.npy",
        "series_30.npy"
    ],
    "val_paths": [
        "series_31.npy",
        "series_32.npy",
        "series_36.npy",
        "series_1.npy",
        "series_8.npy",
        "series_21.npy",
        "series_12.npy",
        "series_16.npy",
        "series_28.npy"
    ],
    "test_paths": [
        "series_13.npy",
        "series_7.npy",
        "series_15.npy",
        "series_2.npy",
        "series_3.npy",
        "series_22.npy",
        "series_11.npy",
        "series_17.npy",
        "series_10.npy",
        "series_29.npy",
        "series_6.npy",
        "series_14.npy",
        "series_34.npy"
    ],
    "train_paths_prefix": "cleaned",
    "val_paths_prefix": "cleaned",
    "test_paths_prefix": "cleaned",
    "mmap_mode": null
  },

  "preparation": {
    "look_back": 72,
    "batch_size": 1024
  },

  "model": {
    "max_nb_epoch": 50,
    "cells": [16],
    "rnn_class": "keras.layers.LSTM"
  },

  "analyzer": {
    "disabled": true
  }
}
